{
  "data": [
    {
      "__type__": "GoodsOverview",
      "brand": {
        "__type__": "BrandOverview",
        "description": "NIKE(나이키)는 토탈 라이프스타일 브랜드로 이미 세계 1위 브랜드로 자리 잡았으며, 다양한 아티스트와 브랜드들과의 컬래버레이션으로 많은 분야에서 활동하며 압도적인 신발 판매량과 더불어 두터운 마니아층을 갖고 있는 브랜드입니다.",
        "id": 107,
        "name": "나이키"
      },
      "discountRate": 52,
      "id": 756119,
      "isDiscounted": true,
      "likeCount": 1368,
      "name": "[나이키] 반팔 티셔츠 10종 택1",
      "picture": {
        "__type__": "Picture",
        "id": "8eb69c2f-d83a-4cc7-b86e-676ecd78fcf9",
        "isDefault": false,
        "originalHeight": 1000,
        "originalWidth": 1000
      },
      "price": 29000,
      "priceOriginal": 59900,
      "reviewsCount": 11,
      "status": "normal"
    },
    {
      "__type__": "GoodsOverview",
      "brand": {
        "__type__": "BrandOverview",
        "description": "내셔널지오그래픽 어패럴은 지금 이순간에도 지구와 인류를 위한 끊임없는 모험과 탐험을 이어가고 있는 내셔널지오그래픽 탐험가들과 그들이 이뤄낸 업적을 모티브로 하고 있습니다. \n의류, 여행 캐리어, 백팩, 캠핑 및 등산용품 등 다양한 제품을 통해 도시와 자연, 일상과 모험을 넘나드는 여러분의 특별한 여정을 함께합니다.",
        "id": 3849,
        "name": "내셔널지오그래픽"
      },
      "discountRate": 0,
      "id": 723943,
      "isDiscounted": false,
      "likeCount": 6438,
      "name": "[1+1]내셔널지오그래픽 유니 메이스 2PACK 반팔 티셔츠",
      "picture": {
        "__type__": "Picture",
        "id": "9ef19874-859f-4762-a0d2-13acca52d226",
        "isDefault": false,
        "originalHeight": 500,
        "originalWidth": 500
      },
      "price": 49000,
      "priceOriginal": 49000,
      "reviewsCount": 233,
      "status": "normal"
    },
    {
      "__type__": "GoodsOverview",
      "brand": {
        "__type__": "BrandOverview",
        "description": "ADIDAS(아디다스)는 Adolf (\"Adi\") Dassler 라는 사람에 의해 창시되었습니다. 아디 (Adi) 와 그의 형제 루디(Rudi)는 1920년부터 독일의 헤르초게나우라흐(Herzogenaurach)에서 스포츠화를 성공적으로 생산하다 1948년 서로 갈라지면서 루디는 푸마 (Puma) 를, 아디는 아디다스를 형성하게 됩니다.",
        "id": 1042,
        "name": "아디다스"
      },
      "discountRate": 52,
      "id": 755109,
      "isDiscounted": true,
      "likeCount": 3458,
      "name": "무더운 여름에 필요한 핫 아이템! 초특가 나이키 반팔 /아디다스 알파바운스",
      "picture": {
        "__type__": "Picture",
        "id": "b36dec79-4804-4e45-ba07-fd207a84131c",
        "isDefault": false,
        "originalHeight": 600,
        "originalWidth": 600
      },
      "price": 9900,
      "priceOriginal": 20400,
      "reviewsCount": 73,
      "status": "normal"
    },
    {
      "__type__": "GoodsOverview",
      "brand": {
        "__type__": "BrandOverview",
        "description": "ADIDAS(아디다스)는 Adolf (\"Adi\") Dassler 라는 사람에 의해 창시되었습니다. 아디 (Adi) 와 그의 형제 루디(Rudi)는 1920년부터 독일의 헤르초게나우라흐(Herzogenaurach)에서 스포츠화를 성공적으로 생산하다 1948년 서로 갈라지면서 루디는 푸마 (Puma) 를, 아디는 아디다스를 형성하게 됩니다.",
        "id": 1042,
        "name": "아디다스"
      },
      "discountRate": 34,
      "id": 440527,
      "isDiscounted": true,
      "likeCount": 56028,
      "name": "아디다스 나이키 여름 데일리 반바지 숏팬츠 모음전! (AJ5892/BV6860-010 외)",
      "picture": {
        "__type__": "Picture",
        "id": "a24d0b07-d78b-47bd-b174-384a4ad99696",
        "isDefault": false,
        "originalHeight": 600,
        "originalWidth": 600
      },
      "price": 9900,
      "priceOriginal": 15000,
      "reviewsCount": 1018,
      "status": "normal"
    },
    {
      "__type__": "GoodsOverview",
      "brand": {
        "__type__": "BrandOverview",
        "description": "Champion(챔피온)은 1919년에 설립된 이후로 높은 퀄리티의 후디 및 메쉬 재질의 제품들을 생산함으로써 미국, 유럽, 일본 등 세계적으로 꾸준히 인기를 얻고 있는 스포츠 의류 브랜드입니다.",
        "id": 1513,
        "name": "챔피온"
      },
      "discountRate": 52,
      "id": 529228,
      "isDiscounted": true,
      "likeCount": 19872,
      "name": "[주말특가]챔피온 Y06794 스크립트 로고 반팔티",
      "picture": {
        "__type__": "Picture",
        "id": "5fa0718d-1a79-4092-aad9-fb738cefbe0d",
        "isDefault": false,
        "originalHeight": 720,
        "originalWidth": 720
      },
      "price": 16800,
      "priceOriginal": 35000,
      "reviewsCount": 350,
      "status": "normal"
    },
    {
      "__type__": "GoodsOverview",
      "brand": {
        "__type__": "BrandOverview",
        "description": "PUMA(푸마)는 다즐러에 의해 독일에서 만들어진 세계적인 스포츠 브랜드입니다. 현재는 토털 라이프스타일 브랜드로, 높은 퀄리티와 다양한 디자이너와의 콜라보레이션으로 세계적으로 많은 사랑을 받고 있습니다.",
        "id": 1808,
        "name": "푸마"
      },
      "discountRate": 25,
      "id": 759658,
      "isDiscounted": true,
      "likeCount": 3091,
      "name": "푸마 TG 캐주얼 티 여름티셔츠 반팔티 3종 택1",
      "picture": {
        "__type__": "Picture",
        "id": "308e660b-666f-4a06-8bc9-55c5e347e2d7",
        "isDefault": false,
        "originalHeight": 600,
        "originalWidth": 600
      },
      "price": 15900,
      "priceOriginal": 21000,
      "reviewsCount": 25,
      "status": "normal"
    },
    {
      "__type__": "GoodsOverview",
      "brand": {
        "__type__": "BrandOverview",
        "description": "NIKE(나이키)는 토탈 라이프스타일 브랜드로 이미 세계 1위 브랜드로 자리 잡았으며, 다양한 아티스트와 브랜드들과의 컬래버레이션으로 많은 분야에서 활동하며 압도적인 신발 판매량과 더불어 두터운 마니아층을 갖고 있는 브랜드입니다.",
        "id": 107,
        "name": "나이키"
      },
      "discountRate": 53,
      "id": 464499,
      "isDiscounted": true,
      "likeCount": 15559,
      "name": "[주말특가][나이키언더아머] 나이키스우시/피케폴로티 데일리 반팔티 모음(AR4997/CJ4456/AR5006)",
      "picture": {
        "__type__": "Picture",
        "id": "f00131ee-d783-4261-878a-df8fe5220d53",
        "isDefault": false,
        "originalHeight": 720,
        "originalWidth": 720
      },
      "price": 18400,
      "priceOriginal": 39000,
      "reviewsCount": 169,
      "status": "normal"
    },
    {
      "__type__": "GoodsOverview",
      "brand": {
        "__type__": "BrandOverview",
        "description": "1959년 이태리에서 시작된 엘레쎄는 고유의 레트로한 무드를 현대적으로 재해석한 헤리티지 컬렉션을 메인으로 클래식한 라이프 스포츠 웨어를 선보인다.",
        "id": 3907,
        "name": "ellesse"
      },
      "discountRate": 45,
      "id": 758212,
      "isDiscounted": true,
      "likeCount": 5371,
      "name": "[주말특가][위클리특가][단독구성][1+1] 오리진 빅로고+스몰로고 반팔티셔츠(~5/25)",
      "picture": {
        "__type__": "Picture",
        "id": "b210040b-bfeb-4aa7-9ae3-2b5cfad8dba5",
        "isDefault": false,
        "originalHeight": 1000,
        "originalWidth": 1000
      },
      "price": 33000,
      "priceOriginal": 59600,
      "reviewsCount": 515,
      "status": "normal"
    },
    {
      "__type__": "GoodsOverview",
      "brand": {
        "__type__": "BrandOverview",
        "description": "러디칙스(RuddyCheeks) 는 '붉으스름한 볼' 이라는 뜻으로 그 자체만으로 순수한 10대 소년,소녀 들에게 영감을 받아 매 시즌마다 유니크한 영캐주얼 스타일을 제시합니다.",
        "id": 6387,
        "name": "러디칙스"
      },
      "discountRate": 28,
      "id": 722844,
      "isDiscounted": true,
      "likeCount": 4178,
      "name": "[위클리특가]21 BUTTERFLY T-shrits [5Color](~5/25)",
      "picture": {
        "__type__": "Picture",
        "id": "d18144a1-dea5-4c1f-a5b9-88af97bb7b21",
        "isDefault": false,
        "originalHeight": 1000,
        "originalWidth": 1000
      },
      "price": 27500,
      "priceOriginal": 38000,
      "reviewsCount": 72,
      "status": "normal"
    },
    {
      "__type__": "GoodsOverview",
      "brand": {
        "__type__": "BrandOverview",
        "description": "지프(JEEP)는 자유와 가능성의 상징으로 1941년에 탄생해 지금까지 그 명성을 잇는 브랜드입니다. 지프를 떠올릴 때 가장 먼저 생각이 나는 모험, 자유, 가치 그리고 오리지널리티에 기반을 두고 디자인하며 패션 라인은 오리지널 라인인 지프, 프리미엄 빈티지 캐주얼 지프 스피리트(JEEP SPIRIT), 라이프스타일 콘셉트의 지프 브랜드(JEEP BRAND), 아메리칸 헤리티지 감성의 지프 클래식 컬렉션(JEEP CLASSIC COLLECTION)으로 전개합니다.",
        "id": 4442,
        "name": "지프"
      },
      "discountRate": 38,
      "id": 329623,
      "isDiscounted": true,
      "likeCount": 41851,
      "name": "[위클리특가][단독상품]Jeep Logo T-shirts (9 color) BK,WH [06/01일부터 순차 배송]",
      "picture": {
        "__type__": "Picture",
        "id": "6a429b53-5755-470f-88a9-fc131af20d3d",
        "isDefault": false,
        "originalHeight": 1500,
        "originalWidth": 1500
      },
      "price": 18000,
      "priceOriginal": 29000,
      "reviewsCount": 1484,
      "status": "normal"
    },
    {
      "__type__": "GoodsOverview",
      "brand": {
        "__type__": "BrandOverview",
        "description": "CARHARTT WIP(칼하트 WIP)은 칼하트 USA와는 엄연히 다르며, 유럽에서 전개되는 브랜드입니다. CARHARTT WIP은 소재와 FIT, 다양한 그래픽을 추가하여 유럽 최고의 스트릿웨어 브랜드가 되었습니다. BMX, SKATE, ARTIST 등을 끊임 없이 후원하며 스트리트 웨어로써 입지를 굳혔으며, 데님과 티, 재킷 등 모든 카테고리에서 최고의 제품을 만들어 내고 있습니다.",
        "id": 2119,
        "name": "칼하트"
      },
      "discountRate": 37,
      "id": 685789,
      "isDiscounted": true,
      "likeCount": 7052,
      "name": "[스쉐 단독특가] 칼하트 (K87) 포켓 반팔티 17컬러",
      "picture": {
        "__type__": "Picture",
        "id": "3067afd9-3187-4c56-b9b7-b7f37bd8763c",
        "isDefault": false,
        "originalHeight": 720,
        "originalWidth": 720
      },
      "price": 24900,
      "priceOriginal": 39000,
      "reviewsCount": 34,
      "status": "normal"
    },
    {
      "__type__": "GoodsOverview",
      "brand": {
        "__type__": "BrandOverview",
        "description": "ADIDAS(아디다스)는 Adolf (\"Adi\") Dassler 라는 사람에 의해 창시되었습니다. 아디 (Adi) 와 그의 형제 루디(Rudi)는 1920년부터 독일의 헤르초게나우라흐(Herzogenaurach)에서 스포츠화를 성공적으로 생산하다 1948년 서로 갈라지면서 루디는 푸마 (Puma) 를, 아디는 아디다스를 형성하게 됩니다.",
        "id": 1042,
        "name": "아디다스"
      },
      "discountRate": 24,
      "id": 683391,
      "isDiscounted": true,
      "likeCount": 6905,
      "name": "아디다스 반바지 숏팬츠 GN5776 스쿼드라 21 쇼트",
      "picture": {
        "__type__": "Picture",
        "id": "e9f90e94-660b-45db-b630-a03278bd439d",
        "isDefault": false,
        "originalHeight": 600,
        "originalWidth": 600
      },
      "price": 16900,
      "priceOriginal": 22000,
      "reviewsCount": 64,
      "status": "normal"
    },
    {
      "__type__": "GoodsOverview",
      "brand": {
        "__type__": "BrandOverview",
        "description": "스포츠를 사랑하는 사람들의 원동력이 되는 것, 그것이 데상트라는 브랜드가 지닌 목표다.\n데상트는 이러한 목표를 위해 디테일한 디자인을 추구하며, 이를 통해 기능적 아름다움이 창조된다.",
        "id": 3027,
        "name": "데상트"
      },
      "discountRate": 0,
      "id": 701900,
      "isDiscounted": false,
      "likeCount": 2576,
      "name": "[데상트] [Move Us]남녀공용 친환경 코튼 스몰로고 반팔 티셔츠 (SM123UTS35)",
      "picture": {
        "__type__": "Picture",
        "id": "44b47238-c8c0-49ce-826f-94cbd8724740",
        "isDefault": false,
        "originalHeight": 500,
        "originalWidth": 500
      },
      "price": 39000,
      "priceOriginal": 39000,
      "reviewsCount": 12,
      "status": "normal"
    },
    {
      "__type__": "GoodsOverview",
      "brand": {
        "__type__": "BrandOverview",
        "description": "",
        "id": 2915,
        "name": "언더아머"
      },
      "discountRate": 17,
      "id": 751247,
      "isDiscounted": true,
      "likeCount": 1187,
      "name": "언더아머 주니어 반팔티 1363282-001 UA 스포츠스타일 로고 티",
      "picture": {
        "__type__": "Picture",
        "id": "22d93b8a-39fc-420e-a2cc-4102d8a9cc32",
        "isDefault": false,
        "originalHeight": 600,
        "originalWidth": 600
      },
      "price": 25000,
      "priceOriginal": 30000,
      "reviewsCount": 4,
      "status": "normal"
    },
    {
      "__type__": "GoodsOverview",
      "brand": {
        "__type__": "BrandOverview",
        "description": "NIKE(나이키)는 토탈 라이프스타일 브랜드로 이미 세계 1위 브랜드로 자리 잡았으며, 다양한 아티스트와 브랜드들과의 컬래버레이션으로 많은 분야에서 활동하며 압도적인 신발 판매량과 더불어 두터운 마니아층을 갖고 있는 브랜드입니다.",
        "id": 107,
        "name": "나이키"
      },
      "discountRate": 34,
      "id": 728364,
      "isDiscounted": true,
      "likeCount": 2301,
      "name": "나이키 반팔티 반바지 베스트 아이템 라인업 내맘대로 코디!",
      "picture": {
        "__type__": "Picture",
        "id": "2b3309a2-8603-44f1-abe9-aa441c78cb34",
        "isDefault": false,
        "originalHeight": 600,
        "originalWidth": 600
      },
      "price": 9000,
      "priceOriginal": 13500,
      "reviewsCount": 172,
      "status": "normal"
    },
    {
      "__type__": "GoodsOverview",
      "brand": {
        "__type__": "BrandOverview",
        "description": "TOMMY HILFIGER(타미힐피거)는 당신의 라이프 스타일을 제안합니다. 옷에서 패션으로 패션에서 라이프로, 당신의 라이프 스타일을 제안하는 타미힐피거 아메리칸 패션의 상징,클래식부터 캐주얼을 아우르는 다양한 디자인으로 사랑받고 있는 타미힐피거의 벨트를 지금 경험해 보세요.",
        "id": 1653,
        "name": "타미힐피거"
      },
      "discountRate": 60,
      "id": 437409,
      "isDiscounted": true,
      "likeCount": 6406,
      "name": "[주말특가](1+1) 타미힐피거 반팔티 T3139 남성여성 2장세트",
      "picture": {
        "__type__": "Picture",
        "id": "174d75b8-0637-4a47-a653-58f8912bfb1d",
        "isDefault": false,
        "originalHeight": 1000,
        "originalWidth": 1000
      },
      "price": 40000,
      "priceOriginal": 99900,
      "reviewsCount": 41,
      "status": "normal"
    },
    {
      "__type__": "GoodsOverview",
      "brand": {
        "__type__": "BrandOverview",
        "description": "지프(JEEP)는 자유와 가능성의 상징으로 1941년에 탄생해 지금까지 그 명성을 잇는 브랜드입니다. 지프를 떠올릴 때 가장 먼저 생각이 나는 모험, 자유, 가치 그리고 오리지널리티에 기반을 두고 디자인하며 패션 라인은 오리지널 라인인 지프, 프리미엄 빈티지 캐주얼 지프 스피리트(JEEP SPIRIT), 라이프스타일 콘셉트의 지프 브랜드(JEEP BRAND), 아메리칸 헤리티지 감성의 지프 클래식 컬렉션(JEEP CLASSIC COLLECTION)으로 전개합니다.",
        "id": 4442,
        "name": "지프"
      },
      "discountRate": 49,
      "id": 406342,
      "isDiscounted": true,
      "likeCount": 11577,
      "name": "[주말특가][단독특가]Tri-Logo Label 5 Color",
      "picture": {
        "__type__": "Picture",
        "id": "cff36e4a-874a-4dfc-acf1-b673303c0def",
        "isDefault": false,
        "originalHeight": 1500,
        "originalWidth": 1500
      },
      "price": 18000,
      "priceOriginal": 35000,
      "reviewsCount": 187,
      "status": "normal"
    },
    {
      "__type__": "GoodsOverview",
      "brand": {
        "__type__": "BrandOverview",
        "description": "1959년 이태리에서 시작된 엘레쎄는 고유의 레트로한 무드를 현대적으로 재해석한 헤리티지 컬렉션을 메인으로 클래식한 라이프 스포츠 웨어를 선보인다.",
        "id": 3907,
        "name": "ellesse"
      },
      "discountRate": 33,
      "id": 739500,
      "isDiscounted": true,
      "likeCount": 4151,
      "name": "[주말특가][단독특가]오리진 빅로고 반팔 티셔츠 (레귤러핏)",
      "picture": {
        "__type__": "Picture",
        "id": "54d99296-eb65-42a8-a598-cfc46d91bc75",
        "isDefault": false,
        "originalHeight": 1000,
        "originalWidth": 1000
      },
      "price": 20000,
      "priceOriginal": 29800,
      "reviewsCount": 40,
      "status": "normal"
    },
    {
      "__type__": "GoodsOverview",
      "brand": {
        "__type__": "BrandOverview",
        "description": "어나더 아카이브(another archive)는 또 다른 나 자신의 기록 이라는 ,평범하지만 남들과 다른 나를 표현해나가는 의미를 담고있습니다.\n스트릿 캐주얼 웨어를 기반으로  a moment a instant 라는 슬로건에 맞는, 일상의 순간순간 마다 자신을 표현하는 모든것들을 기록해나가고자 합니다.",
        "id": 6549,
        "name": "어나더아카이브"
      },
      "discountRate": 75,
      "id": 727112,
      "isDiscounted": true,
      "likeCount": 893,
      "name": "[주말특가](1+1)화이트＆블랙 아트워크 8타입 반팔 컬렉션(~31까지)",
      "picture": {
        "__type__": "Picture",
        "id": "e323d9b0-0289-4161-a944-1973eb2ccbd0",
        "isDefault": false,
        "originalHeight": 720,
        "originalWidth": 720
      },
      "price": 19900,
      "priceOriginal": 79600,
      "reviewsCount": 13,
      "status": "normal"
    },
    {
      "__type__": "GoodsOverview",
      "brand": {
        "__type__": "BrandOverview",
        "description": "지프(JEEP)는 자유와 가능성의 상징으로 1941년에 탄생해 지금까지 그 명성을 잇는 브랜드입니다. 지프를 떠올릴 때 가장 먼저 생각이 나는 모험, 자유, 가치 그리고 오리지널리티에 기반을 두고 디자인하며 패션 라인은 오리지널 라인인 지프, 프리미엄 빈티지 캐주얼 지프 스피리트(JEEP SPIRIT), 라이프스타일 콘셉트의 지프 브랜드(JEEP BRAND), 아메리칸 헤리티지 감성의 지프 클래식 컬렉션(JEEP CLASSIC COLLECTION)으로 전개합니다.",
        "id": 4442,
        "name": "지프"
      },
      "discountRate": 77,
      "id": 781352,
      "isDiscounted": true,
      "likeCount": 117,
      "name": "[럭키박스][100개한정]지프X스쉐 블랙에디션 6종 패키지 [05/31일부터 순차 배송]",
      "picture": {
        "__type__": "Picture",
        "id": "b6e1157d-deea-416d-929c-d12f67cd75ee",
        "isDefault": false,
        "originalHeight": 1500,
        "originalWidth": 1500
      },
      "price": 48000,
      "priceOriginal": 206000,
      "reviewsCount": 12,
      "status": "normal"
    }
  ],
  "paging": {
    "next": "/categories/350/goods?sort=score-desc&offset=20&limit=20&score_type=a"
  },
  "total": 62871
}
